<svg xmlns="http://www.w3.org/2000/svg" width="542.478" height="85.994" viewBox="0 0 542.478 85.994">
  <g id="splashLogo" transform="translate(-30.092 -16.666)">
    <g id="Group_1" data-name="Group 1">
      <g id="Group_3" data-name="Group 3">
        <path id="Path_1" data-name="Path 1" d="M181.23,102.42q-9.99-.345-15.1-4.74a26.122,26.122,0,0,1-7.38-9.95,29.522,29.522,0,0,1-2.27-11.26,30.665,30.665,0,0,1,2.22-11.49,25.56,25.56,0,0,1,7.38-9.94q5.16-4.4,13.12-4.52h49.06V65.04H179.88a6.271,6.271,0,0,0-4.37,1.71,9.86,9.86,0,0,0-2.73,4.46,17.993,17.993,0,0,0-.85,5.37,18.688,18.688,0,0,0,.85,5.6,9.452,9.452,0,0,0,2.73,4.4,6.838,6.838,0,0,0,4.37,1.77h48.38v14.06H181.23Zm47.02-20.91H179.76V71.1h48.49Z"/>
        <path id="Path_2" data-name="Path 2" d="M386.55,50.41v52.01H371.22V50.41Z"/>
        <path id="Path_3" data-name="Path 3" d="M143.99,34.02v68.64H128.66V34.02Z"/>
        <path id="Path_4" data-name="Path 4" d="M399.61,35.65h72.45a7.387,7.387,0,0,1,7.61,7.61,7.254,7.254,0,0,1-2.16,5.34,9.791,9.791,0,0,1-1.36,1.14L428,87.21h50.42v15.22H405.97a7.755,7.755,0,0,1-7.61-7.61,7.4,7.4,0,0,1,1.93-5.11h-.11l.45-.34a7.313,7.313,0,0,1,1.48-1.14l48.72-37.36H399.61V35.65Z"/>
        <path id="Path_5" data-name="Path 5" d="M515.1,102.66q-9.99-.345-15.1-4.76a26.259,26.259,0,0,1-7.38-9.97,29.518,29.518,0,0,1-2.27-11.29,31.007,31.007,0,0,1,2.21-11.52,25.577,25.577,0,0,1,7.38-9.97q5.175-4.41,13.12-4.53h36.8q7.95.12,13.12,4.53a25.648,25.648,0,0,1,7.38,9.97,30.808,30.808,0,0,1,2.21,11.52,29.669,29.669,0,0,1-2.27,11.29,26.287,26.287,0,0,1-7.38,9.97q-5.115,4.41-15.1,4.76Zm-2.5-36.68a4.868,4.868,0,0,0-3.75,1.78,11.1,11.1,0,0,0-2.33,4.13,15.294,15.294,0,0,0,0,9.4,11.1,11.1,0,0,0,2.33,4.13,5.235,5.235,0,0,0,3.75,1.89h37.7a5.272,5.272,0,0,0,3.75-1.89,11.021,11.021,0,0,0,2.33-4.13,15.867,15.867,0,0,0,.74-4.76,15.444,15.444,0,0,0-.74-4.64,11.1,11.1,0,0,0-2.33-4.13,4.9,4.9,0,0,0-3.75-1.78Z"/>
        <rect id="Rectangle_1" data-name="Rectangle 1" width="280.81" height="8.82" transform="translate(98.07 29.61)"/>
        <rect id="Rectangle_2" data-name="Rectangle 2" width="286.77" height="4.41" transform="translate(71.33 16.67)" fill="#bad556"/>
        <path id="Path_6" data-name="Path 6" d="M369.57,33.97a6.885,6.885,0,0,1,2.72-5.45,10.7,10.7,0,0,1,13.18,0,6.856,6.856,0,0,1,2.72,5.45,6.979,6.979,0,0,1-2.72,5.56,10.7,10.7,0,0,1-13.18,0A6.993,6.993,0,0,1,369.57,33.97Z"/>
        <path id="Path_7" data-name="Path 7" d="M256.44,102.42V72.78a5.272,5.272,0,0,1,1.89-3.75,11.021,11.021,0,0,1,4.13-2.33,15.867,15.867,0,0,1,4.76-.74,15.136,15.136,0,0,1,4.64.74,11.1,11.1,0,0,1,4.13,2.33,4.9,4.9,0,0,1,1.78,3.75v29.64h15.36V73.24q-.12-7.95-4.53-13.12a25.55,25.55,0,0,0-9.97-7.38,30.808,30.808,0,0,0-11.52-2.21,29.669,29.669,0,0,0-11.29,2.27,26.183,26.183,0,0,0-9.97,7.38q-4.41,5.115-4.76,15.1v27.14Z"/>
        <path id="Path_8" data-name="Path 8" d="M321.41,102.42V72.78a5.272,5.272,0,0,1,1.89-3.75,11.021,11.021,0,0,1,4.13-2.33,15.867,15.867,0,0,1,4.76-.74,15.136,15.136,0,0,1,4.64.74,11.1,11.1,0,0,1,4.13,2.33,4.9,4.9,0,0,1,1.78,3.75v29.64H358.1V73.24q-.12-7.95-4.53-13.12a25.55,25.55,0,0,0-9.97-7.38,30.808,30.808,0,0,0-11.52-2.21,29.67,29.67,0,0,0-11.29,2.27,26.183,26.183,0,0,0-9.97,7.38q-4.41,5.115-4.76,15.1v27.14Z"/>
      </g>
      <g id="Group_2" data-name="Group 2">
        <path id="Path_9" data-name="Path 9" d="M97.99,29.62l-.19.12c-3.64,2.22-15.32,10.49-13,23.87a27.164,27.164,0,0,0,3.6,9.7,33.129,33.129,0,0,1,3.97,10.05c1.92,8.61-4.43,17.66-13.88,19.77a2.254,2.254,0,0,1-.36.06l-.19.03-.13.04c-.12.03-.23.07-.35.09-9.44,2.11-19.05-3.39-20.97-12a32.979,32.979,0,0,1-.68-10.78,27.064,27.064,0,0,0-.86-10.31C52.61,51.7,44.74,45.73,33.89,44.27l-.2-.03a41.225,41.225,0,1,0,64.3-14.62Z"/>
        <path id="Path_10" data-name="Path 10" d="M55.29,56.96c2.51,9.17-.63,11.36,1.55,21.12,1.79,8.03,10.79,13.52,20.1,11.45.17-.04.34-.1.51-.14s.35-.05.52-.09c9.31-2.08,15.12-10.87,13.33-18.9-2.18-9.77-5.95-10.42-7.57-19.78C81.84,39.73,88.94,30.96,97.06,26A41.193,41.193,0,0,0,33.63,40.44C42.83,41.68,52.46,46.63,55.29,56.96Z" fill="#bad556"/>
      </g>
    </g>
  </g>
</svg>
